# Exported from 3D Builder
mtllib cone.mtl

o Object.1
v -15.036362 13.186771 0.000028
v -17.320610 9.999844 0.000025
v -15.867073 12.175114 0.000027
v -16.629280 11.111259 0.000026
v -14.141876 14.142044 0.000028
v -17.937149 8.845673 0.000024
v -13.186760 15.036686 0.000029
v -18.477310 7.653549 0.000023
v -12.175110 15.866920 0.000030
v -18.938721 6.428665 0.000022
v -11.111328 16.629288 0.000031
v -19.318253 5.176224 0.000021
v -9.999908 17.320393 0.000031
v -19.615891 3.901657 0.000020
v -8.845665 17.937317 0.000032
v -19.828484 2.610397 0.000019
v -7.653534 18.477474 0.000032
v -19.956833 1.307961 0.000018
v -6.428658 18.938496 0.000032
v -20.000137 -0.000145 0.000017
v -5.176292 19.318417 0.000033
v -19.956833 -1.308182 0.000016
v -3.901726 19.615582 0.000033
v -19.828484 -2.610619 0.000015
v -2.610390 19.828735 0.000033
v -19.615891 -3.901955 0.000013
v -1.307953 19.957081 0.000033
v -19.318253 -5.176529 0.000012
v 0.000084 19.999832 0.000033
v -18.938721 -6.428963 0.000011
v 1.308189 19.957081 0.000033
v -18.477310 -7.654160 0.000010
v 2.610630 19.828735 0.000033
v -17.937149 -8.846283 0.000009
v 3.901970 19.615582 0.000033
v -17.320610 -9.999832 0.000008
v 5.176540 19.318417 0.000033
v -16.629280 -11.111641 0.000007
v 6.428894 18.938496 0.000032
v -15.867073 -12.175415 0.000007
v 7.653778 18.477474 0.000032
v -15.036362 -13.187225 0.000006
v 8.845901 17.937317 0.000032
v -14.141876 -14.142342 0.000005
v 10.000153 17.320393 0.000031
v -13.186760 -15.036827 0.000004
v 11.111488 16.629288 0.000031
v -12.175110 -15.867538 0.000003
v 12.175350 15.866920 0.000030
v -11.111244 -16.629745 0.000003
v 13.187080 15.036686 0.000029
v -9.999908 -17.320297 0.000002
v 14.142277 14.142044 0.000028
v -8.845665 -17.937622 0.000002
v 15.036919 13.186771 0.000028
v -7.653534 -18.477776 0.000001
v 15.867157 12.175114 0.000027
v -6.428658 -18.938400 0.000001
v 16.629520 11.111259 0.000026
v -5.176292 -19.318718 0.000001
v 17.320618 9.999844 0.000025
v -3.901649 -19.615570 0.000000
v 17.937546 8.845673 0.000024
v -2.610390 -19.828957 0.000000
v 18.477703 7.653549 0.000023
v -1.307953 -19.957298 0.000000
v 18.938728 6.428665 0.000022
v 0.000084 -19.999825 0.000000
v 19.318649 5.176224 0.000021
v 1.308189 -19.957298 0.000000
v 19.615814 3.901657 0.000020
v 2.610630 -19.828957 0.000000
v 19.829041 2.610397 0.000019
v 3.901970 -19.615570 0.000000
v 19.957310 1.307961 0.000018
v 5.176540 -19.318718 0.000001
v 20.000145 -0.000145 0.000017
v 6.428894 -18.938400 0.000001
v 19.957310 -1.308182 0.000016
v 7.653778 -18.477776 0.000001
v 19.829041 -2.610619 0.000015
v 8.845901 -17.937622 0.000002
v 19.615814 -3.901955 0.000013
v 10.000072 -17.320297 0.000002
v 19.318649 -5.176529 0.000012
v 11.111488 -16.629745 0.000003
v 18.938728 -6.428963 0.000011
v 12.175350 -15.867538 0.000003
v 18.477703 -7.654160 0.000010
v 13.187000 -15.036827 0.000004
v 17.937546 -8.846283 0.000009
v 14.142277 -14.142342 0.000005
v 17.320618 -9.999832 0.000008
v 15.036919 -13.187225 0.000006
v 16.629520 -11.111641 0.000007
v 15.867157 -12.175415 0.000007
v 0.000084 -0.000145 39.999966

usemtl Orange_0
f 1 2 3
f 3 97 1
f 1 97 5
f 5 97 7
f 5 7 6
f 2 5 6
f 6 97 2
f 2 97 4
f 8 97 6
f 10 97 8
f 8 9 10
f 9 11 10
f 10 11 12
f 11 13 12
f 12 13 14
f 14 97 12
f 16 97 14
f 14 15 16
f 15 17 16
f 16 17 18
f 17 19 18
f 18 19 20
f 20 97 18
f 22 97 20
f 20 21 22
f 21 23 22
f 22 23 24
f 23 25 24
f 24 25 26
f 26 97 24
f 28 97 26
f 26 27 28
f 27 29 28
f 28 29 30
f 29 31 30
f 30 31 32
f 32 97 30
f 34 97 32
f 32 33 34
f 33 35 34
f 34 35 36
f 35 37 36
f 36 37 38
f 38 97 36
f 40 97 38
f 38 39 40
f 39 41 40
f 40 41 42
f 41 43 42
f 42 43 44
f 44 97 42
f 46 97 44
f 44 45 46
f 45 47 46
f 46 47 48
f 47 49 48
f 48 49 50
f 50 97 48
f 52 97 50
f 50 51 52
f 51 53 52
f 52 53 54
f 53 55 54
f 54 55 56
f 56 97 54
f 58 97 56
f 56 57 58
f 57 59 58
f 58 59 60
f 59 61 60
f 60 61 62
f 62 97 60
f 64 97 62
f 62 63 64
f 63 65 64
f 64 65 66
f 65 67 66
f 66 67 68
f 68 97 66
f 70 97 68
f 68 69 70
f 69 71 70
f 70 71 72
f 71 73 72
f 72 73 74
f 74 97 72
f 76 97 74
f 74 75 76
f 75 77 76
f 76 77 78
f 77 79 78
f 78 79 80
f 80 97 78
f 82 97 80
f 80 81 82
f 81 83 82
f 82 83 84
f 83 85 84
f 84 85 86
f 86 97 84
f 88 97 86
f 86 87 88
f 87 89 88
f 88 89 90
f 89 91 90
f 90 91 92
f 92 97 90
f 94 97 92
f 92 93 94
f 93 95 94
f 94 95 96
f 95 97 96
f 93 97 95
f 91 97 93
f 96 97 94
f 91 93 92
f 89 97 91
f 87 97 89
f 85 97 87
f 90 97 88
f 85 87 86
f 83 97 85
f 81 97 83
f 79 97 81
f 84 97 82
f 79 81 80
f 77 97 79
f 75 97 77
f 73 97 75
f 78 97 76
f 73 75 74
f 71 97 73
f 69 97 71
f 67 97 69
f 72 97 70
f 67 69 68
f 65 97 67
f 63 97 65
f 61 97 63
f 66 97 64
f 61 63 62
f 59 97 61
f 57 97 59
f 55 97 57
f 60 97 58
f 55 57 56
f 53 97 55
f 51 97 53
f 49 97 51
f 54 97 52
f 49 51 50
f 47 97 49
f 45 97 47
f 43 97 45
f 48 97 46
f 43 45 44
f 41 97 43
f 39 97 41
f 37 97 39
f 42 97 40
f 37 39 38
f 35 97 37
f 33 97 35
f 31 97 33
f 36 97 34
f 31 33 32
f 29 97 31
f 27 97 29
f 25 97 27
f 30 97 28
f 25 27 26
f 23 97 25
f 21 97 23
f 19 97 21
f 24 97 22
f 19 21 20
f 17 97 19
f 15 97 17
f 13 97 15
f 18 97 16
f 13 15 14
f 11 97 13
f 9 97 11
f 7 9 8
f 12 97 10
f 6 7 8
f 7 97 9
f 4 97 3
f 4 3 2
f 1 5 2

